Métodos analíticos - 3 Modelos causales e inferencia
…
All 4 chains finished successfully.
Mean chain execution time: 141.4 seconds.
Total execution time: 144.7 seconds.

resumen_mod <- ajuste$summary() |> select(variable, mean, q5, q95)
resumen_mod

# A tibble: 29 × 4
   variable          mean          q5          q95
   <chr>            <dbl>       <dbl>        <dbl>
 1 lp__      -13086.      -13092.     -13081.     
 2 beta_0        -0.383       -0.432      -0.334  
 3 beta[1,1]      0.687        0.0473      1.32   
 4 beta[2,1]     -0.652       -1.31        0.00402
 5 beta[1,2]      0.300       -0.343       0.938  
 6 beta[2,2]     -2.06        -2.75       -1.33   
 7 beta[1,3]     -0.243       -0.884       0.395  
 8 beta[2,3]      1.05         0.388       1.69   
 9 beta[1,4]      0.00421     -0.630       0.645  
10 beta[2,4]      0.587       -0.0775      1.24   
# … with 19 more rows
…
All 4 chains finished successfully.
Mean chain execution time: 144.0 seconds.
Total execution time: 147.0 seconds.

resumen_mod <- ajuste$summary() |> select(variable, mean, q5, q95)
resumen_mod

# A tibble: 45 × 4
   variable         mean          q5         q95
   <chr>           <dbl>       <dbl>       <dbl>
 1 lp__      -13086.     -13092.     -13081.    
 2 beta_0        -0.382      -0.433      -0.330 
 3 beta[1,1]      0.705      -0.0265      1.37  
 4 beta[2,1]     -0.645      -1.32        0.0387
 5 beta[1,2]      0.320      -0.403       0.977 
 6 beta[2,2]     -2.06       -2.76       -1.34  
 7 beta[1,3]     -0.225      -0.950       0.445 
 8 beta[2,3]      1.05        0.391       1.72  
 9 beta[1,4]      0.0247     -0.700       0.686 
10 beta[2,4]      0.595      -0.0583      1.26  
# … with 35 more rows
…
All 4 chains finished successfully.
Mean chain execution time: 571.2 seconds.
Total execution time: 577.4 seconds.

resumen_disc_mod <- ajuste_disc$summary() |> select(variable, mean, q5, q95)
resumen_disc_mod

# A tibble: 4,571 × 4
   variable         mean          q5        q95
   <chr>           <dbl>       <dbl>      <dbl>
 1 lp__      -14726.     -14805.     -14647    
 2 beta_0        -0.382      -0.431      -0.332
 3 beta[1,1]      0.702       0.0495      1.36 
 4 beta[2,1]     -0.531      -1.22        0.140
 5 beta[1,2]      0.315      -0.321       0.984
 6 beta[2,2]     -1.94       -2.67       -1.25 
 7 beta[1,3]     -0.230      -0.882       0.435
 8 beta[2,3]      1.17        0.485       1.84 
 9 beta[1,4]      0.0196     -0.637       0.686
10 beta[2,4]      0.711       0.0254      1.37 
# … with 4,561 more rows
…
