Métodos analíticos - 4 Experimentos y controles
…
  C <- rbinom(n, 1, 1/(1+exp(-(-2 + 4 * T))))
  U <- rnorm(n, 0, 5)
  G <- rbinom(n, 1, 0.5)
  H <- rnorm(n, 170 - 10 * G, 20)
  PI <- rnorm(n, -20 +  0.5 * H + U, 10)
  PF <- rnorm(n, PI + U - 20 * T + 3 * C , 5)
  #V <- PF - (PI + U - 10 * T + 2 * C)
  B <- rbinom(n, 1, 1/(1 + exp(-(PF-50)/7)))
  tibble(G, H, T, PI, PF, B, C)
}
set.seed(26)
peso_tbl <- sim_peso(1200)
peso_tbl

# A tibble: 1,200 × 7
       G     H     T    PI    PF     B     C
   <int> <dbl> <int> <dbl> <dbl> <int> <int>
 1     1  186.     0  73.4  80.9     1     1
 2     0  173.     0  63.4  72.2     1     0
 3     1  180.     1  67.4  52.6     0     1
 4     1  159.     1  56.3  39.2     0     0
 5     1  135.     0  36.0  36.6     0     0
 6     0  194.     0  74.5  77.9     1     0
 7     0  152.     1  45.9  25.4     0     1
 8     1  189.     1  72.4  44.1     0     1
 9     1  136.     0  41.6  43.9     1     0
10     1  168.     1  67.4  43.8     1     1
# … with 1,190 more rows
…
