Métodos analíticos - 9 Aplicaciones de modelos de espacio de estados
…
natalidad_tbl |> 
  filter(year(fecha) > 2008) |> 
  arrange(desc(abs(error))) |> 
  mutate(dia_sem = weekdays(fecha)) 

Warning: Current temporal ordering may yield unexpected results.
ℹ Suggest to sort by ``, `fecha` first.
Current temporal ordering may yield unexpected results.
ℹ Suggest to sort by ``, `fecha` first.
Current temporal ordering may yield unexpected results.
ℹ Suggest to sort by ``, `fecha` first.

# A tsibble: 2,922 x 5 [1D]
   fecha      nacimientos feb_29  error dia_sem 
   <date>           <dbl>  <dbl>  <dbl> <chr>   
 1 2013-01-01        8.45      0 -0.199 Tuesday 
 2 2009-11-02        8.64      0 -0.186 Monday  
 3 2012-09-16        8.66      0  0.172 Sunday  
 4 2016-11-21        8.49      0 -0.172 Monday  
 5 2012-12-25        8.47      0 -0.167 Tuesday 
 6 2016-12-25        8.15      0  0.162 Sunday  
 7 2014-05-01        8.57      0 -0.161 Thursday
 8 2015-11-16        8.56      0 -0.159 Monday  
 9 2015-05-01        8.55      0 -0.158 Friday  
10 2012-11-19        8.66      0 -0.150 Monday  
# … with 2,912 more rows
…
